<svg id="logo" xmlns="http://www.w3.org/2000/svg" width="37.89" height="36" viewBox="0 0 37.89 36">
  <defs>
    <style>
      .cls-1 {
        fill: #3e366b;
      }

      .cls-2, .cls-4 {
        fill: #fff;
      }

      .cls-2, .cls-3 {
        isolation: isolate;
      }
    </style>
  </defs>
  <g id="グループ_4433" data-name="グループ 4433">
    <g id="グループ_4427" data-name="グループ 4427">
      <path id="パス_27180" data-name="パス 27180" class="cls-1" d="M106.873,225.955Z" transform="translate(-81.209 -218.805)"/>
      <path id="パス_27181" data-name="パス 27181" class="cls-1" d="M106.873,225.955h0Z" transform="translate(-81.209 -218.805)"/>
      <path id="パス_27182" data-name="パス 27182" class="cls-1" d="M82.687,221.34a32.724,32.724,0,0,0-6.458-1.354V220a32.618,32.618,0,0,0-3.28-5.715,29.989,29.989,0,0,0-4-4.17,29.989,29.989,0,0,0-4,4.17A32.686,32.686,0,0,0,61.657,220h0l0-.015A32.73,32.73,0,0,0,55.2,221.34a30,30,0,0,0-5.2,2.521,29.987,29.987,0,0,0,2.728,5.1,32.626,32.626,0,0,0,4.42,4.883,32.571,32.571,0,0,0-.7,6.541,29.972,29.972,0,0,0,.789,5.728,30.007,30.007,0,0,0,5.691-1.019,32.72,32.72,0,0,0,6.021-2.7v0a32.737,32.737,0,0,0,6.021,2.7,30.008,30.008,0,0,0,5.691,1.019,30.014,30.014,0,0,0,.789-5.728,32.552,32.552,0,0,0-.7-6.529l.014-.016,0-.008a32.536,32.536,0,0,0,4.406-4.871,29.987,29.987,0,0,0,2.728-5.1A29.981,29.981,0,0,0,82.687,221.34Z" transform="translate(-50 -210.11)"/>
    </g>
    <path id="パス_27183" data-name="パス 27183" class="cls-2" d="M89.794,247.387a29.363,29.363,0,0,1-3.871-11.914,29.356,29.356,0,0,1-12.526,0h0a29.364,29.364,0,0,1-3.871,11.914,29.355,29.355,0,0,1,10.134,7.363h0a29.366,29.366,0,0,1,10.134-7.363Z" transform="translate(-60.715 -224.028)"/>
    <g id="グループ_4430" data-name="グループ 4430" transform="translate(10.615 12.634)">
      <g id="グループ_4429" data-name="グループ 4429">
        <g id="グループ_4428" data-name="グループ 4428">
          <path id="パス_27184" data-name="パス 27184" class="cls-1" d="M80.526,253.776a2.416,2.416,0,0,0,2.657,0l6.087-4.423a2.416,2.416,0,0,0,.821-2.526l-2.325-7.156a2.415,2.415,0,0,0-2.149-1.562H78.092a2.415,2.415,0,0,0-2.149,1.562l-2.325,7.156a2.416,2.416,0,0,0,.821,2.526Z" transform="translate(-73.525 -238.109)"/>
        </g>
      </g>
    </g>
    <g id="グループ_4432" data-name="グループ 4432" class="cls-3" transform="translate(15.989 16.602)">
      <path id="パス_27185" data-name="パス 27185" class="cls-4" d="M88.389,252.339c.057-.18-1.609-.857-2.346-1.124-.29-.105-.538-.012-.6.167s.088.4.384.486A8.178,8.178,0,0,0,88.389,252.339Z" transform="translate(-85.434 -249.244)"/>
      <path id="パス_27186" data-name="パス 27186" class="cls-4" d="M89.688,253.826c-.159-.1-1.244,1.333-1.693,1.976-.176.253-.151.517.007.62s.41.019.569-.245C88.977,255.5,89.846,253.93,89.688,253.826Z" transform="translate(-86.772 -250.698)"/>
      <g id="グループ_4431" data-name="グループ 4431" transform="translate(2.612)">
        <path id="パス_27187" data-name="パス 27187" class="cls-4" d="M91.566,250a8.163,8.163,0,0,1-.343-2.579c-.01-.308.154-.515.343-.516s.354.208.344.516A8.173,8.173,0,0,1,91.566,250Z" transform="translate(-91.222 -246.901)"/>
        <path id="パス_27188" data-name="パス 27188" class="cls-4" d="M91.982,252.339c-.057-.18,1.609-.857,2.346-1.124.29-.105.538-.012.6.167s-.088.4-.384.486A8.178,8.178,0,0,1,91.982,252.339Z" transform="translate(-91.638 -249.244)"/>
        <path id="パス_27189" data-name="パス 27189" class="cls-4" d="M92.05,253.826c.159-.1,1.244,1.333,1.693,1.976.177.253.151.517-.007.62s-.41.019-.569-.245C92.761,255.5,91.892,253.93,92.05,253.826Z" transform="translate(-91.666 -250.698)"/>
      </g>
    </g>
  </g>
</svg>
